Introduction to ACEBounds
…
The first 10 rows of the data simulated:

print(sim_dat$simulated_data, n = 10)

## # A tibble: 500 x 4
##        U    Z1     X     Y
##    <dbl> <dbl> <dbl> <dbl>
##  1     1     1     0     1
##  2     1     1     1     1
##  3     0     1     1     0
##  4     1     2     1     1
##  5     1     2     1     1
##  6     0     0     0     1
##  7     0     2     1     1
##  8     0     1     1     0
##  9     0     2     1     0
## 10     1     0     1     1
## # … with 490 more rows
…
