Example Analysis of Data from the IEU GWAS Database
…
pairs_of_snps <- expand_grid(SNP1 = unique(trivariate_bounds$SNP),
                             SNP2 = unique(trivariate_bounds$SNP)) %>% 
  filter(SNP1 != SNP2) %>% 
  rowwise() %>% 
  summarize(SNPs = list(sort(c(SNP1, SNP2)))) %>% 
  filter(duplicated(SNPs)) %>% 
  mutate(SNPs = map(SNPs, ~tibble_row(SNP1 = .x[1], SNP2 = .x[2]))) %>% 
  unnest_wider(SNPs)

## `summarise()` ungrouping output (override with `.groups` argument)

pairs_of_snps

## # A tibble: 2,701 x 2
##    SNP1       SNP2      
##    <chr>      <chr>     
##  1 rs10173733 rs10193706
##  2 rs10173733 rs10233018
##  3 rs10193706 rs10233018
##  4 rs10173733 rs10274594
##  5 rs10193706 rs10274594
##  6 rs10233018 rs10274594
##  7 rs10173733 rs1029986 
##  8 rs10193706 rs1029986 
##  9 rs10233018 rs1029986 
## 10 rs10274594 rs1029986 
## # … with 2,691 more rows
…
both_bounds

## # A tibble: 4,500 x 10
##    SNP1  SNP2  SNP1_bivariate_… SNP1_bivariate_… SNP1_lower SNP1_upper
##    <chr> <chr>            <dbl>            <dbl>      <dbl>      <dbl>
##  1 rs62… rs78…           -0.957            0.871     -0.456     0.173 
##  2 rs62… rs78…           -0.957            0.871     -0.179     0.511 
##  3 rs62… rs78…           -0.957            0.871     -0.233     0.485 
##  4 rs62… rs78…           -0.957            0.871     -0.226     0.257 
##  5 rs62… rs78…           -0.957            0.871     -0.190     0.198 
##  6 rs62… rs78…           -0.957            0.871     -0.633     0.245 
##  7 rs62… rs78…           -0.957            0.871     -0.310     0.109 
##  8 rs62… rs78…           -0.957            0.871     -0.535     0.0935
##  9 rs62… rs78…           -0.957            0.871     -0.427     0.332 
## 10 rs62… rs78…           -0.957            0.871     -0.174     0.628 
## # … with 4,490 more rows, and 4 more variables: SNP2_bivariate_lower <dbl>,
## #   SNP2_bivariate_upper <dbl>, SNP2_lower <dbl>, SNP2_upper <dbl>
…
