Utilize two-sample data two get potential one-sample bounds • Bounds in Two-Sample Mendelian Randomization With Summary Statistics
…
bivariate_bounds_mono <- many_sample_joints_mono %>% 
  rowwise() %>% 
  mutate(bounds = list(get_bounds(thetas = thetas, gammas = gammas, x_mono = TRUE, stop = FALSE, warning = FALSE)),
         bivariate_constraints_violated = bounds$constraints_violated,
         interval = list(bounds$interval)) %>% 
  ungroup() %>% 
  unnest_wider(interval) %>% 
  rename(bivariate_lower = lower,
         bivariate_upper = upper) %>% 
  print() %>% 
  select(j, contains("bivariate"))

## # A tibble: 100 x 9
##        j thetas gammas pot_covs samp_joints bounds bivariate_const…
##    <int> <list> <list> <list>   <list>      <list> <lgl>           
##  1     1 <dbl … <dbl … <named … <tibble [1… <name… FALSE           
##  2     2 <dbl … <dbl … <named … <tibble [1… <name… FALSE           
##  3     3 <dbl … <dbl … <named … <tibble [1… <name… FALSE           
##  4     4 <dbl … <dbl … <named … <tibble [1… <name… FALSE           
##  5     5 <dbl … <dbl … <named … <tibble [1… <name… FALSE           
##  6     6 <dbl … <dbl … <named … <tibble [1… <name… FALSE           
##  7     7 <dbl … <dbl … <named … <tibble [1… <name… FALSE           
##  8     8 <dbl … <dbl … <named … <tibble [1… <name… FALSE           
##  9     9 <dbl … <dbl … <named … <tibble [1… <name… FALSE           
## 10    10 <dbl … <dbl … <named … <tibble [1… <name… FALSE           
## # … with 90 more rows, and 2 more variables: bivariate_lower <dbl>,
## #   bivariate_upper <dbl>
…
