Example Analysis of Data from the IEU GWAS Database • ACEBounds
…
pairs_of_snps <- expand_grid(SNP1 = unique(trivariate_bounds$SNP),
                             SNP2 = unique(trivariate_bounds$SNP)) %>%
  filter(SNP1 != SNP2) %>%
  rowwise() %>%
  summarize(SNPs = list(sort(c(SNP1, SNP2)))) %>%
  filter(duplicated(SNPs)) %>%
  mutate(SNPs = map(SNPs, ~tibble_row(SNP1 = .x[1], SNP2 = .x[2]))) %>%
  unnest_wider(SNPs)

## `summarise()` ungrouping output (override with `.groups` argument)

pairs_of_snps

## # A tibble: 2,926 x 2
##    SNP1       SNP2      
##    <chr>      <chr>     
##  1 rs10173733 rs10193706
##  2 rs10173733 rs10233018
##  3 rs10193706 rs10233018
##  4 rs10173733 rs10274594
##  5 rs10193706 rs10274594
##  6 rs10233018 rs10274594
##  7 rs10173733 rs1029986 
##  8 rs10193706 rs1029986 
##  9 rs10233018 rs1029986 
## 10 rs10274594 rs1029986 
## # … with 2,916 more rows
…
both_bounds

## # A tibble: 4,500 x 10
##    SNP1  SNP2  SNP1_bivariate_… SNP1_bivariate_… SNP1_lower SNP1_upper
##    <chr> <chr>            <dbl>            <dbl>      <dbl>      <dbl>
##  1 rs60… rs77…           -0.561            0.473     -0.535      0.455
##  2 rs60… rs77…           -0.561            0.473     -0.534      0.454
##  3 rs60… rs77…           -0.561            0.473     -0.530      0.451
##  4 rs60… rs77…           -0.561            0.473     -0.534      0.446
##  5 rs60… rs77…           -0.561            0.473     -0.526      0.445
##  6 rs60… rs77…           -0.561            0.473     -0.532      0.445
##  7 rs60… rs77…           -0.561            0.473     -0.530      0.448
##  8 rs60… rs77…           -0.561            0.473     -0.533      0.445
##  9 rs60… rs77…           -0.561            0.473     -0.535      0.447
## 10 rs60… rs77…           -0.561            0.473     -0.538      0.440
## # … with 4,490 more rows, and 4 more variables: SNP2_bivariate_lower <dbl>,
## #   SNP2_bivariate_upper <dbl>, SNP2_lower <dbl>, SNP2_upper <dbl>
…
