Example Analysis of Data from the IEU GWAS Database • Bounds in Two-Sample Mendelian Randomization With Summary Statistics
…
smoking_lung_cancer_pairs_of_snps <- expand_grid(SNP1 = unique(smoking_lung_cancer_trivariate_bounds$SNP),
                                                 SNP2 = unique(smoking_lung_cancer_trivariate_bounds$SNP)) %>% 
  filter(SNP1 != SNP2) %>% 
  rowwise() %>% 
  summarize(SNPs = list(sort(c(SNP1, SNP2)))) %>% 
  filter(duplicated(SNPs)) %>% 
  mutate(SNPs = map(SNPs, ~tibble_row(SNP1 = .x[1], SNP2 = .x[2]))) %>% 
  unnest_wider(SNPs)

## `summarise()` has ungrouped output. You can override using the `.groups` argument.

smoking_lung_cancer_pairs_of_snps

## # A tibble: 3,486 x 2
##    SNP1       SNP2      
##    <chr>      <chr>     
##  1 rs10173733 rs10193706
##  2 rs10173733 rs10233018
##  3 rs10193706 rs10233018
##  4 rs10173733 rs10274594
##  5 rs10193706 rs10274594
##  6 rs10233018 rs10274594
##  7 rs10173733 rs1029986 
##  8 rs10193706 rs1029986 
##  9 rs10233018 rs1029986 
## 10 rs10274594 rs1029986 
## # … with 3,476 more rows
…
smoking_lung_cancer_both_bounds

## # A tibble: 4,000 x 10
##    SNP1  SNP2  SNP1_bivariate_… SNP1_bivariate_… SNP1_lower SNP1_upper
##    <chr> <chr>            <dbl>            <dbl>      <dbl>      <dbl>
##  1 rs52… rs74…           -0.662            0.576     -0.468      0.405
##  2 rs52… rs74…           -0.662            0.576     -0.456      0.419
##  3 rs52… rs74…           -0.662            0.576     -0.433      0.370
##  4 rs52… rs74…           -0.662            0.576     -0.499      0.425
##  5 rs52… rs74…           -0.662            0.576     -0.461      0.358
##  6 rs52… rs74…           -0.662            0.576     -0.484      0.415
##  7 rs52… rs74…           -0.662            0.576     -0.459      0.459
##  8 rs52… rs74…           -0.662            0.576     -0.477      0.357
##  9 rs52… rs74…           -0.662            0.576     -0.504      0.396
## 10 rs52… rs74…           -0.662            0.576     -0.429      0.386
## # … with 3,990 more rows, and 4 more variables: SNP2_bivariate_lower <dbl>,
## #   SNP2_bivariate_upper <dbl>, SNP2_lower <dbl>, SNP2_upper <dbl>
…
cholesterol_heart_attack_pairs_of_snps <- expand_grid(SNP1 = unique(cholesterol_heart_attack_trivariate_bounds$SNP),
                                                      SNP2 = unique(cholesterol_heart_attack_trivariate_bounds$SNP)) %>% 
  filter(SNP1 != SNP2) %>% 
  rowwise() %>% 
  summarize(SNPs = list(sort(c(SNP1, SNP2)))) %>% 
  filter(duplicated(SNPs)) %>% 
  mutate(SNPs = map(SNPs, ~tibble_row(SNP1 = .x[1], SNP2 = .x[2]))) %>% 
  unnest_wider(SNPs)

## `summarise()` has ungrouped output. You can override using the `.groups` argument.

cholesterol_heart_attack_pairs_of_snps

## # A tibble: 1,431 x 2
##    SNP1       SNP2      
##    <chr>      <chr>     
##  1 rs10096633 rs10260606
##  2 rs10096633 rs10410835
##  3 rs10260606 rs10410835
##  4 rs10096633 rs10504255
##  5 rs10260606 rs10504255
##  6 rs10410835 rs10504255
##  7 rs10096633 rs10804330
##  8 rs10260606 rs10804330
##  9 rs10410835 rs10804330
## 10 rs10504255 rs10804330
## # … with 1,421 more rows
…
cholesterol_heart_attack_both_bounds

## # A tibble: 4,000 x 10
##    SNP1  SNP2  SNP1_bivariate_… SNP1_bivariate_… SNP1_lower SNP1_upper
##    <chr> <chr>            <dbl>            <dbl>      <dbl>      <dbl>
##  1 rs11… rs31…           -0.146            0.901    -0.105       0.865
##  2 rs11… rs31…           -0.146            0.901    -0.112       0.859
##  3 rs11… rs31…           -0.146            0.901    -0.0997      0.856
##  4 rs11… rs31…           -0.146            0.901    -0.113       0.883
##  5 rs11… rs31…           -0.146            0.901    -0.125       0.855
##  6 rs11… rs31…           -0.146            0.901    -0.128       0.856
##  7 rs11… rs31…           -0.146            0.901    -0.106       0.870
##  8 rs11… rs31…           -0.146            0.901    -0.119       0.854
##  9 rs11… rs31…           -0.146            0.901    -0.102       0.858
## 10 rs11… rs31…           -0.146            0.901    -0.123       0.873
## # … with 3,990 more rows, and 4 more variables: SNP2_bivariate_lower <dbl>,
## #   SNP2_bivariate_upper <dbl>, SNP2_lower <dbl>, SNP2_upper <dbl>
…
